{
    "log4js": {
        "appenders": { "out": { "type": "stdout" } },
        "categories": { "default": { "appenders": ["out"], "level": "info" } }
    },
    "server": {
        "host": "0.0.0.0",
        "port": 8080
    }
}
